<!doctype html>
<html>
<head><style>
                     table{width:100%}
                     table, th, td {
                        border: 1px solid black;
                      }
                      th, td {
                        padding: 5px;
                      }
                      th {
                        text-align: center;
                      }
                     </style></head>
<body>
                       <table style="width: 100%; border: 1px solid black;">
<tr>
<th style="border: 1px solid black; padding: 5px; text-align: center;">SKU</th>
                              <td style="border: 1px solid black; padding: 5px;">TKM35MD - NO MORE </td>
                            </tr>
<tr>
<th style="border: 1px solid black; padding: 5px; text-align: center;">Name</th>
                               <td style="border: 1px solid black; padding: 5px;">TKM35 GX35 MIST DUSTER</td>
                            </tr>
<tr>
<th style="border: 1px solid black; padding: 5px; text-align: center;">Status</th>
                               <td style="border: 1px solid black; padding: 5px;">Awaiting Approval</td>
                            </tr>
</table>
</body>
</html>